Place,Name,State,WeightClassKg,BodyweightKg,Age,Best3SquatKg,Best3BenchKg,Best3DeadliftKg,TotalKg,Sex,Division,Equipment,Event,Squat4Kg,Bench4Kg,Deadlift4Kg,Tested
1,Melissa Mancuso,NV,75,73.6,23,147.5,77.5,155,380,F,Junior 20-23,Raw,SBD,,,,Yes
1,Mikayla Johnson,AZ,90,87.8,20,145,82.5,155,382.5,F,Junior 20-23,Raw,SBD,147.5,,,Yes
1,Mary Cuaresma,NV,48,46.6,26,97.5,47.5,125,270,F,Open,Raw,SBD,100,,130,Yes
1,Princess Tibule,NV,52,50.9,27,92.5,45,127.5,265,F,Open,Raw,SBD,,,137.5,Yes
1,Erin Schuch,NV,60,58.9,28,80,65,102.5,247.5,F,Open,Raw,SBD,,,,Yes
1,Steph Powell,NV,67.5,66.9,30,172.5,85,227.5,485,F,Open,Raw,SBD,,,,Yes
2,Ray Ray Ayala,CA,67.5,66.4,25,110,65,150,325,F,Open,Raw,SBD,,,,Yes
3,Kristina Thuemler,NV,67.5,67.4,24,102.5,57.5,110,270,F,Open,Raw,SBD,,,,Yes
1,Melissa Mancuso,NV,75,73.6,23,147.5,77.5,155,380,F,Open,Raw,SBD,,,,Yes
2,Anne Erlandson,NV,75,67.6,34,102.5,70,130,302.5,F,Open,Raw,SBD,,,,Yes
1,Genevieve Ordonez,NV,82.5,75.2,28,122.5,55,125,302.5,F,Open,Raw,SBD,,,,Yes
1,Jonathan Roldan,NV,67.5,66.3,22,160,110,175,445,M,Junior 20-23,Raw,SBD,,,,Yes
1,Christian Aquino #1,NV,75,74,21,195,130,245,570,M,Junior 20-23,Raw,SBD,,,,Yes
1,Vinh Tran,NV,90,88.6,21,192.5,110,225,527.5,M,Junior 20-23,Raw,SBD,,,,Yes
1,Kristian Barit,NV,100,100,18,262.5,150,265,677.5,M,Junior 18-19,Raw,SBD,,,,Yes
1,Albert Caval,NV,67.5,66.7,37,207.5,110,250,567.5,M,Open,Raw,SBD,,,,Yes
2,Rocky Magbual Jr,NV,67.5,67.1,28,182.5,150,227.5,560,M,Open,Raw,SBD,,,,Yes
1,Burton Xie,NV,75,74.9,31,137.5,115,182.5,435,M,Open,Raw,SBD,,,,Yes
1,Troy Castillo,NV,82.5,81.2,26,142.5,110,222.5,475,M,Open,Raw,SBD,,,,Yes
1,James Grant #1,NV,90,88,27,250,170,290,710,M,Open,Raw,SBD,,,,Yes
2,Jon Miller,NV,90,89.6,32,220,137.5,270,627.5,M,Open,Raw,SBD,,,,Yes
3,Ronald Harris,NV,90,89.5,33,227.5,142.5,252.5,622.5,M,Open,Raw,SBD,,,,Yes
4,DeVaughn Smith,NV,90,88,24,195,155,252.5,602.5,M,Open,Raw,SBD,,,,Yes
5,Benjamin Shiramizu,NV,90,84.9,28,165,85,180,430,M,Open,Raw,SBD,,,,Yes
1,Shane Pham,NV,100,95.3,25,235,147.5,287.5,670,M,Open,Raw,SBD,,,,Yes
2,Mitch Colangelo,NV,100,91,27,182.5,132.5,190,505,M,Open,Raw,SBD,,,,Yes
1,Mario Falcon,NV,140,139.3,36,212.5,147.5,255,615,M,Open,Raw,SBD,,,,Yes
1,Richard Castillo,NV,140+,152.3,26,282.5,230.5,287.5,800.5,M,Open,Raw,SBD,,232.5,,Yes
1,Geoffery Bennett,NM,82.5,81.8,38,190,122.5,237.5,550,M,Submaster 35-39,Raw,SBD,,,,Yes
1,Jack Bagley,NV,125,119,36,155,117.5,207.5,480,M,Submaster 35-39,Raw,SBD,,,,Yes
1,Mario Falcon,NV,140,139.3,36,212.5,147.5,255,615,M,Submaster 35-39,Raw,SBD,,,,Yes
1,Michael Lamoureux,WA,100,97,52,205,165,230,600,M,Master 50-54,Raw,SBD,,,,Yes
2,Kevin Robinson,NV,100,96,54,185,125,187.5,497.5,M,Master 50-54,Raw,SBD,,,,Yes
1,Precious Trejo,IN,60,60,19,142.5,82.5,145,370,F,Junior 18-19,Wraps,SBD,,,,Yes
1,Precious Trejo,IN,60,60,19,142.5,82.5,145,370,F,Open,Wraps,SBD,,,,Yes
1,Larry Shea,UT,82.5,82.5,47,162.5,160,187.5,510,M,Open,Raw,SBD,,,,Yes
1,Jessie Swanson,AZ,125,118.6,25,242.5,175,245,662.5,M,Open,Wraps,SBD,,,,Yes
2,Justin DeBruyckere,AZ,125,118,25,227.5,145,245,617.5,M,Open,Wraps,SBD,,,,Yes
1,Pete Pele,NV,140,139.3,29,280,182.5,320,782.5,M,Open,Wraps,SBD,,,,Yes
1,Larry Shea,UT,82.5,82.5,47,162.5,160,187.5,510,M,Master 45-49,Raw,SBD,,,,Yes
DQ,Adam Trejo,IN,100,99,41,240,175,,,M,Master 40-44,Wraps,SBD,,,,Yes
1,Joseph Gargiulo,NV,125,114.5,48,130,127.5,177.5,435,M,Master 45-49,Wraps,SBD,,,,Yes
DQ,Patrick Diggins,NV,140,127.5,57,,107.5,195,,M,Master 55-59,Wraps,SBD,,,,Yes
1,Malinda Barnes,AZ,82.5,79.4,39,167.5,112.5,175,455,F,Open,Single-ply,SBD,,,,Yes
1,Pearl Beck,NV,44,41.6,19,,35,,35,F,Junior 18-19,Raw,B,,,,Yes
1,Erin Schuch,NV,60,58.9,28,,65,,65,F,Open,Raw,B,,,,Yes
1,Eric Porras,NV,56,56,39,,125,,125,M,Open,Raw,B,,,,Yes
1,Ruben Castro,WA,75,74,36,,172.5,,172.5,M,Open,Raw,B,,,,Yes
1,Larry Shea,UT,82.5,82.5,47,,160,,160,M,Open,Raw,B,,,,Yes
1,Eric Porras,NV,56,56,39,,125,,125,M,Submaster 35-39,Raw,B,,,,Yes
1,Ruben Castro,WA,75,74,36,,172.5,,172.5,M,Submaster 35-39,Raw,B,,,,Yes
1,Larry Shea,UT,82.5,82.5,47,,160,,160,M,Master 45-49,Raw,B,,,,Yes
1,Eric Porras,NV,56,56,39,,126,,126,M,Open,Single-ply,B,,,,Yes
DQ,Lonnie Wilborn,NV,110,108.3,47,,,,,M,Open,Single-ply,B,,,,Yes
DQ,Lonnie Wilborn,NV,110,108.3,47,,,,,M,Master 45-49,Single-ply,B,,,,Yes
1,Erin Schuch,NV,60,58.9,28,,,102.5,102.5,F,Open,Raw,D,,,,Yes
1,Genevieve Ordonez,NV,82.5,75.2,28,,,125,125,F,Open,Raw,D,,,,Yes
1,Pete Pele,NV,140,139.3,29,,,320,320,M,Open,Raw,D,,,,Yes
2,Mario Falcon,NV,140,139.3,36,,,255,255,M,Open,Raw,D,,,,Yes
1,Mario Falcon,NV,140,139.3,36,,,255,255,M,Submaster 35-39,Raw,D,,,,Yes
