Place,WeightClassKg,Name,Equipment,Team,BodyweightKg,Squat1Kg,Squat2Kg,Squat3Kg,Best3SquatKg,Bench1Kg,Bench2Kg,Bench3Kg,Best3BenchKg,Deadlift1Kg,Deadlift2Kg,Deadlift3Kg,Best3DeadliftKg,TotalKg,Division,Sex,Event
1,57,Sara Havnes Løvaas,Raw,Bergen SK,56.50,100,110,-112.5,110.0,57.5,60,62.5,62.5,112.5,120,-125,120.0,292.5,Open,F,SBD
1,52,Angela Maria Jansens Torheim,Raw,Bergen SK,51.10,70,75,-80,75.0,37.5,40,42.5,42.5,85,90,92.5,92.5,210,Master 60-69,F,SBD
1,63,Anne Lise Sæthre,Raw,Bergen SK,61.50,55,60,65,65.0,37.5,40,42.5,42.5,75,85,92.5,92.5,200,Master 60-69,F,SBD
1,83,Einar Naveen Møen,Raw,Bergen SK,78.40,120,125,-130,125.0,87.5,92.5,95,95.0,130,135,-140,135.0,355,Teen 14-18,M,SBD
1,120,Robert Øren,Raw,Bergen SK,113.60,150,170,-182.5,170.0,130,140,142.5,142.5,180,200,,200.0,512.5,Master 60-69,M,SBD
