Sex,Equipment,Division,WeightClassKg,Name,BodyweightKg,Best3BenchKg,Best3DeadliftKg,TotalKg,Event,Place
M,Raw,Amateur Open,100,Justin Miller,98.88,154.22,229.06,383.29,BD,1
M,Single-ply,Pro Master 50-54,82.5,Danny Aikers,82.1,138.35,231.33,369.68,BD,1
M,Raw,Amateur Open,125,Neal Brooks,117.03,183.7,226.8,410.5,BD,1
M,Raw,Pro Open,110,Bryan Wayne,106.14,192.78,288.03,480.81,BD,1
M,Multi-ply,Pro Master 60-64,100,Paul Sutphin,97.07,120.2,206.38,326.59,BD,1
M,Single-ply,Pro Open,110,Tom Keim,106.32,208.65,,,BD,DQ
M,Raw,Pro Open,140+,Claude Mumpower,154.67,226.8,,,BD,DQ
M,Raw,Pro Master 40-44,140+,Claude Mumpower,154.67,226.8,,,BD,DQ
M,Raw,Amateur Master,110,Bill Martin,104.33,,242.67,,BD,DQ
