Name,Sex,Division,BodyweightKg,WeightClassKg,Equipment,Best3SquatKg,Best3BenchKg,Best3DeadliftKg,TotalKg,Event,Place
Thomas DiCarlo,M,Amateur Junior 20-23,94.8,100,Raw,,188.24,,188.24,B,1
Darrell Sterling,M,Amateur Master 50-54,106.59,110,Multi-ply,,213.19,,213.19,B,1
Jason Weaver #1,M,Pro Master 40-44,131.36,140,Raw,,204.12,,204.12,B,1
Lou Rapa,M,Amateur Open,127.91,140,Raw,,199.58,,199.58,B,1
Bob Merkh,M,Pro Open,122.74,125,Multi-ply,,,328.85,328.85,D,1
Layla Merkh,F,Amateur Teen 11-19,51.8,52,Wraps,68.04,29.48,83.91,181.44,SBD,1
Emily Gillespie,F,Amateur Open,55.16,56,Wraps,140.61,68.04,145.15,353.8,SBD,1
Rachel Betts,F,Amateur Open,58.88,60,Raw,90.72,45.36,106.59,242.67,SBD,1
Jessica Kline,F,Amateur Open,59.6,60,Wraps,149.69,65.77,147.42,362.87,SBD,1
Becki Pierotti,F,Pro Open,58.51,60,Wraps,142.88,92.99,165.56,401.43,SBD,1
Phyllis Rose,F,Amateur Teen 11-19,57.97,60,Raw,83.91,43.09,106.59,233.6,SBD,1
Diane Petrowski,F,Amateur Master 50-54,63.96,67.5,Wraps,88.45,58.97,108.86,256.28,SBD,1
Cassandra Kardias,F,Amateur Open,65.68,67.5,Wraps,131.54,68.04,158.76,358.34,SBD,1
Ashley Buckley,F,Amateur Open,73.3,75,Raw,104.33,58.97,138.35,301.64,SBD,3
Heather Vona,F,Amateur Open,74.93,75,Raw,113.4,63.5,131.54,308.44,SBD,2
Lisa Vokes,F,Amateur Open,72.48,75,Raw,122.47,81.65,124.74,328.85,SBD,1
Heather Freeborn,F,Pro Submaster 35-39,74.57,75,Raw,136.08,65.77,136.08,337.93,SBD,1
Amy Miner,F,Amateur Submaster 35-39,81.1,82.5,Raw,111.13,52.16,131.54,294.84,SBD,1
Marlene Miranda,F,Amateur Master 40-44,99.43,90+,Raw,127.01,77.11,174.63,378.75,SBD,1
Steffany Rose,F,Amateur Submaster 35-39,103.42,90+,Raw,151.95,83.91,131.54,367.41,SBD,2
Carrie Tolerico,F,Amateur Submaster 35-39,122.29,90+,Raw,181.44,77.11,133.81,392.36,SBD,1
Louis Imperatrice,M,Pro Open,65.5,67.5,Multi-ply,210.92,158.76,181.44,551.11,SBD,1
Nick Hicks,M,Amateur Teen 11-19,74.84,75,Raw,181.44,124.74,,,SBD,DQ
Ezequiel Ortiz,M,Amateur Teen 11-19,72.94,75,Wraps,161.03,111.13,174.63,446.79,SBD,1
Jason Tanoory,M,Amateur Master 40-44,81.47,82.5,Raw,185.97,127.01,215.46,528.44,SBD,1
Ted de Ment,M,Amateur Master 65-69,81.74,82.5,Wraps,229.06,165.56,185.97,580.6,SBD,1
Juan Collazo,M,Amateur Master 80+,80.74,82.5,Wraps,147.42,102.06,165.56,415.04,SBD,1
Marcus Morris,M,Pro Open,82.28,82.5,Multi-ply,371.95,,,,SBD,DQ
Daniel Moskowitz,M,Amateur Open,76.29,82.5,Raw,163.29,124.74,206.38,494.42,SBD,4
Joseph Pancari,M,Amateur Open,79.65,82.5,Raw,174.63,142.88,208.65,526.17,SBD,3
Michael Walley,M,Amateur Open,80.38,82.5,Raw,183.7,154.22,208.65,546.58,SBD,2
Ted de Ment,M,Amateur Open,81.74,82.5,Wraps,229.06,165.56,185.97,580.6,SBD,1
Anthony Kite,M,Amateur Open,81.01,82.5,Raw,204.12,156.49,238.14,598.74,SBD,1
Jason Iorio,M,Pro Open,81.92,82.5,Wraps,208.65,127.01,206.38,542.04,SBD,2
Anthony Hobaica,M,Pro Open,81.47,82.5,Wraps,331.12,219.99,310.71,861.83,SBD,1
Andie Rice,M,Amateur Master 45-49,89.9,90,Raw,124.74,81.65,158.76,365.14,SBD,1
William Scholl,M,Amateur Master 50-54,88.9,90,Wraps,201.85,127.01,181.44,510.29,SBD,1
Alec Raphael,M,Amateur Open,89.72,90,Multi-ply,229.06,,,,SBD,DQ
Peter Neeves,M,Amateur Open,88.63,90,Raw,161.03,,215.46,,SBD,DQ
Richard Kompf,M,Amateur Open,87.72,90,Raw,149.69,124.74,210.92,485.34,SBD,2
Alex Mix,M,Amateur Open,89.72,90,Wraps,174.63,115.67,229.06,519.36,SBD,3
Tim Coe,M,Amateur Open,87.27,90,Wraps,170.1,129.27,233.6,532.97,SBD,2
Darren McGreevy,M,Amateur Open,89.27,90,Raw,206.38,154.22,229.06,589.67,SBD,1
Daniel Predmore,M,Amateur Open,88.72,90,Wraps,260.82,172.37,238.14,671.32,SBD,1
Jake Robinson,M,Amateur Teen 11-19,88.27,90,Raw,224.53,,,,SBD,DQ
Kris Dulmer,M,Amateur Master 40-44,99.88,100,Raw,238.14,195.04,251.74,684.92,SBD,1
Dashon Turner,M,Amateur Master 45-49,96.25,100,Wraps,165.56,102.06,204.12,471.74,SBD,1
Aaron Johnson,M,Amateur Open,97.43,100,Raw,136.08,92.99,163.29,392.36,SBD,3
Pete Tallarico,M,Amateur Open,99.43,100,Raw,174.63,154.22,201.85,530.7,SBD,2
Nathan Desnoyers,M,Amateur Open,96.98,100,Raw,197.31,117.93,235.87,551.11,SBD,1
Alex Seamans,M,Amateur Open,93.26,100,Wraps,206.38,147.42,233.6,587.4,SBD,3
Justin Droke,M,Amateur Open,99.52,100,Wraps,229.06,167.83,258.55,655.44,SBD,2
Sa-id Shakir,M,Amateur Open,98.61,100,Wraps,310.71,158.76,294.84,764.3,SBD,1
Brandon Curry,M,Pro Open,98.61,100,Raw,215.46,156.49,,,SBD,DQ
Matt Champlin,M,Pro Open,97.7,100,Wraps,215.46,122.47,249.48,587.4,SBD,3
Joe Casero,M,Pro Open,98.97,100,Wraps,283.5,161.03,283.5,728.02,SBD,2
Mark Chieco,M,Pro Open,99.7,100,Wraps,301.64,240.4,278.96,821,SBD,1
Larry Martin,M,Amateur Master 50-54,103.51,110,Raw,133.81,,147.42,,SBD,DQ
Douglas Dziedzic,M,Amateur Open,106.14,110,Raw,136.08,72.57,156.49,365.14,SBD,1
Ryan Knox,M,Amateur Open,107.59,110,Wraps,190.51,115.67,192.78,498.95,SBD,1
Alex Alexander,M,Pro Open,108.59,110,Wraps,272.16,190.51,,,SBD,DQ
Luigi Fagiani,M,Pro Open,106.78,110,Raw,285.76,197.31,362.87,845.95,SBD,1
Joe Martin,M,Amateur Teen 11-19,104.24,110,Raw,142.88,102.06,151.95,396.89,SBD,1
Brian Nguyen,M,Amateur Open,115.03,125,Wraps,319.78,172.37,274.42,766.57,SBD,1
