Place,Name,BodyweightKg,Best3SquatKg,Best3BenchKg,Best3DeadliftKg,TotalKg,WeightClassKg,Sex,CyrillicName,BirthYear,Event,Equipment,Division
1,Svitlana Butkevich,46.46,67.5,40,87.5,195,47,F,Світлана Буткевич,1986,SBD,Raw,Open
2,Natalya Cherepanova,45.7,70,32.5,90,192.5,47,F,Наталя Черепанова,1989,SBD,Raw,Open
1,Natalya Ivan'kova,51.5,112.5,82.5,140,335,52,F,Наталія Іванькова,1974,SBD,Raw,Open
2,Irina Gaponova,51.95,102.5,65,132.5,300,52,F,Ірина Гапонова,1978,SBD,Raw,Open
3,Katerina Grisha,51.12,77.5,45,92.5,215,52,F,Катерина Гриша,1988,SBD,Raw,Open
1,Kseniya Prokhorova,56.9,112.5,77.5,135,325,57,F,Ксенія Прохорова,1983,SBD,Raw,Open
2,Tetyana Maltseva,55.38,120,57.5,130,307.5,57,F,Тетяна Мальцева,1975,SBD,Raw,Open
3,Oksana Dopilka,56.18,75,40,100,215,57,F,Оксана Допілка,1978,SBD,Raw,Open
1,Natalya Zhukovska,61.7,110,80,140,330,63,F,Наталя Жуковська,1981,SBD,Raw,Open
2,Irina Vorobyeva,62.35,105,90,127.5,322.5,63,F,Ірина Воробйова,1980,SBD,Raw,Open
3,Svitlana Pelikh,61.95,100,65,110,275,63,F,Світлана Пелих,1980,SBD,Raw,Open
4,Iryna Izosimova,62.85,85,42.5,100,227.5,63,F,Ірина Ізосімова,1979,SBD,Raw,Open
5,Viktoriya Pavlyutenkova,62.5,65,32.5,90,187.5,63,F,Вікторія Павлютенкова,1989,SBD,Raw,Open
1,Evgeniya Tishakova,70.5,155,80,160,395,72,F,Євгенія Тишакова,1989,SBD,Raw,Open
2,Tetyana Antonyuk,70.55,100,80,190,370,72,F,Тетяна Антонюк,1982,SBD,Raw,Open
3,Nataliya Kustova,69.1,97.5,45,132.5,275,72,F,Наталія Кустова,1986,SBD,Raw,Open
1,Olena Fedorenko,72.9,120,87.5,127.5,335,84,F,Олена Федоренко,1988,SBD,Raw,Open
2,Viktoriya Kazakova,73.65,80,45,115,240,84,F,Вікторія Казакова,1988,SBD,Raw,Open
1,Viktoriya Polischuk,94.1,145,92.5,170,407.5,84+,F,Вікторія Поліщук,1985,SBD,Raw,Open
2,Tetyana Belousova,98,120,100,140,360,84+,F,Тетяна Бєлоусова,1975,SBD,Raw,Open
1,Bogdan Vakarev,57.76,170,95,175,440,59,M,Богдан Вакарєв,1990,SBD,Raw,Open
1,Suradzh Chebotar,65.65,225,140,235,600,66,M,Сурадж Чеботар,1977,SBD,Raw,Open
2,Maxym Vasylenko,65.9,160,110,190,460,66,M,Максим Василенко,1989,SBD,Raw,Open
1,Irakli Mdivnishvili,73.1,200,160,237.5,597.5,74,M,Іраклі Мдівнішвілі,1980,SBD,Raw,Open
2,Dmitro Fateev,72.55,200,130,240,570,74,M,Дмитро Фатєєв,1985,SBD,Raw,Open
3,Vyacheslav Kashpullin,73.95,185,140,200,525,74,M,В'ячеслав Кашпулін,1989,SBD,Raw,Open
4,Oleksiy Koshoviy,72.65,162.5,135,217.5,515,74,M,Олексій Кошовий,1989,SBD,Raw,Open
5,Nazar Zhinchin,73.05,150,145,210,505,74,M,Назар Жінчин,1983,SBD,Raw,Open
6,Oleksandr Shishkin,73.6,160,120,170,450,74,M,Олександр Шишкін,1983,SBD,Raw,Open
1,Volodymyr Tykhostup,81.75,255,187.5,262.5,705,83,M,Володимир Тихоступ,1989,SBD,Raw,Open
2,Ruslan Matusyak,82.3,220,135,280,635,83,M,Руслан Матусяк,1986,SBD,Raw,Open
3,Yevgen Galitsyn,79,200,145,272.5,617.5,83,M,Євген Галіцин,1989,SBD,Raw,Open
4,Pavlo Mikush,82.55,220,152.5,245,617.5,83,M,Павло Микуш,1987,SBD,Raw,Open
5,Oleg Otroda,78.75,200,120,250,570,83,M,Олег Отрода,1988,SBD,Raw,Open
6,Ivan Kudilchak,81.1,195,145,215,555,83,M,Іван Кудільчак,1984,SBD,Raw,Open
7,Yuriy Bilyuga,81.65,205,117.5,225,547.5,83,M,Юрій Білюга,1984,SBD,Raw,Open
8,Kostyantin Chernish,82.35,190,132.5,197.5,520,83,M,Костянтин Черниш,1987,SBD,Raw,Open
1,Kostyantin Stakhanov,91.2,240,170,290,700,93,M,Костянтин Стаханов,1982,SBD,Raw,Open
2,Dmytro Kulikov,87.65,230,170,280,680,93,M,Дмитро Куліков,1973,SBD,Raw,Open
3,Vyacheslav Shutenko,89.7,250,155,270,675,93,M,Вячеслав Шутенко,1986,SBD,Raw,Open
4,Valeriy Shishkin,91.4,192.5,127.5,250,570,93,M,Валерій Шишкін,1981,SBD,Raw,Open
5,Ivan Markevich,91.55,200,135,230,565,93,M,Іван Маркевич,1976,SBD,Raw,Open
6,Vasyl' Meseren'ko,89.2,200,117.5,235,552.5,93,M,Василь Месеренько,1955,SBD,Raw,Open
7,Ivan Kitun,90.8,180,135,212.5,527.5,93,M,Іван Китун,1988,SBD,Raw,Open
8,Vitaliy Podus,90.5,195,125,200,520,93,M,Віталій Подус,1976,SBD,Raw,Open
1,Igor Makovetskyi,101.95,272.5,200,300,772.5,105,M,Ігор Маковецький,1972,SBD,Raw,Open
2,Denys Degtyar,103.2,272.5,167.5,300,740,105,M,Денис Дегтяр,1981,SBD,Raw,Open
3,Volodymyr Gorbatyuk,104,225,157.5,270,652.5,105,M,Володимир Горбатюк,1984,SBD,Raw,Open
4,Oleksandr Kalniy,99.35,240,160,250,650,105,M,Олександр Кальний,1986,SBD,Raw,Open
DQ,Sergey Makrushyn,105,,,,,105,M,Сергій Макрушин,1975,SBD,Raw,Open
1,Oleksiy Samosevich,118.5,195,135,240,570,120,M,Олексій Самосевич,1980,SBD,Raw,Open
1,Oleksandr Pronin,130.85,250,205,300,755,120+,M,Олександр Пронін,1978,SBD,Raw,Open
2,Mykhailo Nevzorov,136.35,250,205,270,725,120+,M,Михайло Невзоров,1961,SBD,Raw,Open
3,Stanislav Alistratov,121.9,250,140,282.5,672.5,120+,M,Станіслав Алістратов,1989,SBD,Raw,Open
4,Oleksiy Tynkalyuk,121.55,235,180,255,670,120+,M,Олексій Тинкалюк,1980,SBD,Raw,Open
5,Roman Korsak,125.85,250,147.5,265,662.5,120+,M,Роман Корсак,1980,SBD,Raw,Open
6,Igor Stroka,150.5,175,147.5,252.5,575,120+,M,Ігор Строка,1985,SBD,Raw,Open
