Name,Place,Division,Sex,Equipment,State,WeightClassKg,BodyweightKg,Age,Best3SquatKg,Best3BenchKg,Best3DeadliftKg,TotalKg,Event
Britanni Stephan,1,Junior 20-23,F,Raw,MA,90,86.18,20,102.50,55.00,115.00,272.50,SBD
Alexander Monto,1,Junior 18-19,M,Raw,MA,82.5,79.79,18,167.50,87.50,215.00,470.00,SBD
Rocco Frattasio,1,Junior 16-17,M,Wraps,MA,75,69.40,17,170.00,92.50,205.00,467.50,SBD
Gaby Hajnasr,1,Junior 20-23,M,Wraps,MA,140,135.99,21,245.00,165.00,230.00,640.00,SBD
Juwaan Clinton,1,Open,M,Wraps,MA,100,93.89,28,185.00,110.00,220.00,515.00,SBD
Brandon D. Numsen,1,Master 40-44,M,Wraps,MA,100,96.62,40,220.00,165.00,227.50,612.50,SBD
Adam Rickenbach,1,Open,M,Raw,MA,125,124.78,37,,205.00,,205.00,B
Jeff Crull,1,Master 55-59,M,Raw,MA,56,54.43,59,,,107.50,107.50,D
