Place,WeightClassKg,Name,Equipment,Team,BodyweightKg,Squat1Kg,Squat2Kg,Squat3Kg,Best3SquatKg,Bench1Kg,Bench2Kg,Bench3Kg,Best3BenchKg,Deadlift1Kg,Deadlift2Kg,Deadlift3Kg,Best3DeadliftKg,TotalKg,Division,Sex,Event
1,84,Oda Marie Oma Bjånes,Raw,Stavanger SK,76.70,100,105,110,110.0,45,50,-57.5,50.0,145,152.5,-157.5,152.5,312.5,Teen 14-18,F,SBD
1,84,Nina Uthaug,Raw,Stavanger SK,83.20,95,97.5,110,110.0,60,-65,-65,60.0,105,115,120,120.0,290,Open,F,SBD
1,120,Theo Orstad,Single-ply,Stavanger SK,117.10,-255,260,-270,260.0,-147.5,147.5,150,150.0,245,255,262.5,262.5,672.5,Junior 19-23,M,SBD
1,120,Ove Fosse,Raw,Stavanger SK,105.60,-180,-180,180,180.0,-110,110,115,115.0,190,-205,-205,190.0,485,Master 50-59,M,SBD
