Sex,Equipment,Division,WeightClassKg,Name,BodyweightKg,Best3SquatKg,Best3BenchKg,Best3DeadliftKg,TotalKg,Event,Place
F,Wraps,Pro Submaster 33-39,67.5,Emily Morris,62.78,92.5,42.5,112.5,247.5,SBD,1
F,Raw,Pro Submaster 33-39,67.5,Jennifer Schenker,64.59,90,52.5,110,252.5,SBD,1
M,Raw,Pro Submaster 33-39,110,Luigi Fagiani,109.13,280,212.5,370,862.5,SBD,1
M,Multi-ply,Pro Master 40-44,125,Jeff Shellenburger,121.93,365,227.5,315,907.5,SBD,1
M,Raw,Pro Master 75-79,67.5,Jeffrey Nayer,63.87,112.5,,147.5,,SBD,DQ
M,Raw,Pro Submaster 33-39,140,Wes Brookneck,137.71,,205,272.5,477.5,BD,1
F,Raw,Pro Submaster 33-39,60,Victoria Guin,59.24,,75,,75,B,1
M,Raw,Pro Master 80-84,90,Ray Muller,89.81,,,142.5,142.5,D,1
