Event,Sex,Name,State,BodyweightKg,WeightClassKg,Division,Best3SquatKg,Best3BenchKg,Best3DeadliftKg,TotalKg,Equipment,Place
SBD,M,Craig Harty,AB,89.9,90,Open,250.0,160.0,235.0,645.0,Single-ply,1
SBD,M,Clint Lozinsky,AB,82.3,82.5,Open,215.0,152.5,250.0,617.5,Single-ply,1
SBD,F,Antigone Oreopoulos,AB,67.4,67.5,Open,100.0,65.0,130.0,295.0,Single-ply,1
SBD,M,Alex Mardell,AB,136.2,125+,Open,300.0,260.0,310.0,870.0,Single-ply,1
SBD,M,Hector Aguilar,AB,100.0,100,Open,250.0,182.5,250.0,682.5,Single-ply,1
SBD,M,Nathan Christensen,AB,88.4,90,Junior,162.5,125.0,200.0,487.5,Single-ply,1
SBD,M,Darren Chiu,AB,66.2,67.5,Junior,152.5,115.0,182.5,450.0,Single-ply,1
