Division,WeightClassKg,Place,Name,Team,BodyweightKg,Best3SquatKg,Best3BenchKg,Best3DeadliftKg,TotalKg,Equipment,Event,Sex
Boys,52,1,Rudy Garay,Los Fresnos,51.62,226.8,124.74,188.24,539.77,Single-ply,SBD,M
Boys,52,2,Robert Chapa,Gregory-Portland,50.98,172.37,95.25,190.51,458.13,Single-ply,SBD,M
Boys,52,3,Thomas Soto,Corpus Christi Calallen,51.53,179.17,88.45,188.24,455.86,Single-ply,SBD,M
Boys,52,4,J.T. White,Cedar Hill,51.17,167.83,77.11,190.51,435.45,Single-ply,SBD,M
Boys,52,5,Rigo Pena,Pharr Valley View,51.8,156.49,99.79,172.37,428.64,Single-ply,SBD,M
Boys,52,6,Calvin Ford,Burleson,51.94,163.29,90.72,174.63,428.64,Single-ply,SBD,M
Boys,52,7,Rafael Morales,Laredo Cigarroa,51.8,158.76,92.99,167.83,419.57,Single-ply,SBD,M
Boys,52,8,Kenny Nguyen,Dickinson,51.53,170.1,97.52,149.69,417.3,Single-ply,SBD,M
Boys,52,9,Cesar Casas,Hidalgo Early College,51.53,154.22,95.25,165.56,415.04,Single-ply,SBD,M
Boys,52,10,Shimar Jennings,Plainview,51.89,158.76,88.45,165.56,412.77,Single-ply,SBD,M
Boys,52,11,Dominique John,Mansfield Summit,51.44,138.35,72.57,185.97,396.89,Single-ply,SBD,M
Boys,52,12,Dominique Moreland,Mansfield Summit,51.26,147.42,79.38,165.56,392.36,Single-ply,SBD,M
Boys,52,13,Diego Pena,Roma,50.8,145.15,86.18,154.22,385.55,Single-ply,SBD,M
Boys,52,14,Jesse Ramirez,San Angelo Lake View,51.62,136.08,86.18,158.76,381.02,Single-ply,SBD,M
Boys,52,15,Jerry Alaniz,Laredo Alexander,51.17,142.88,88.45,147.42,378.75,Single-ply,SBD,M
Boys,52,16,Kevin Angus,Port Neches-Groves,51.94,149.69,79.38,149.69,378.75,Single-ply,SBD,M
Boys,52,17,Martin Villarreal,Laredo United South,50.98,127.01,72.57,174.63,374.21,Single-ply,SBD,M
Boys,52,18,Fidencio Cruz,Dickinson,51.62,142.88,70.31,142.88,356.07,Single-ply,SBD,M
Boys,52,19,Rickey Jones,Killeen Harker Heights,51.35,122.47,81.65,136.08,340.19,Single-ply,SBD,M
Boys,52,20,Pete Rios,Waxahachie,49.62,124.74,68.04,136.08,328.85,Single-ply,SBD,M
Boys,52,DQ,Stevie Solis,PSJA Memorial,50.8,,,,,Single-ply,SBD,M
Boys,52,DQ,Josue Leon,Sulphur Springs,49.9,136.08,,,,Single-ply,SBD,M
Boys,52,DQ,Haif Martinez,Lewisville The Colony,51.8,165.56,97.52,,,Single-ply,SBD,M
Boys,52,DQ,David Vega,Freeport Brazosport,51.53,,,,,Single-ply,SBD,M
Boys,52,DQ,Victor Peluso,Frisco Wakeland,51.89,,,,,Single-ply,SBD,M
Boys,52,DQ,Cassius Fitzpatrick,Denison,50.44,136.08,,,,Single-ply,SBD,M
Boys,56,1,Zach Fain,Cedar Hill,55.43,199.58,102.06,206.38,508.02,Single-ply,SBD,M
Boys,56,2,Derrick Dawn,Cedar Hill,55.52,185.97,108.86,204.12,498.95,Single-ply,SBD,M
Boys,56,3,Alex Solis,Weslaco East,55.52,190.51,108.86,190.51,489.88,Single-ply,SBD,M
Boys,56,4,Daniel Chapa,Gregory-Portland,53.98,185.97,104.33,197.31,487.61,Single-ply,SBD,M
Boys,56,5,Andrew Brooks,Houston Madison,55.34,181.44,102.06,195.04,478.54,Single-ply,SBD,M
Boys,56,6,Carlos Bravo,Lewisville The Colony,55.16,176.9,106.59,188.24,471.74,Single-ply,SBD,M
Boys,56,7,Demitri Sommer,Lewisville The Colony,55.79,179.17,79.38,183.7,442.25,Single-ply,SBD,M
Boys,56,8,Blake Mirowitz,Red Oak,56,167.83,90.72,183.7,442.25,Single-ply,SBD,M
Boys,56,9,Robert De La Cerda,Mercedes,55.52,158.76,95.25,170.1,424.11,Single-ply,SBD,M
Boys,56,10,Joey Silva,Garland Sachse,54.88,170.1,83.91,163.29,417.3,Single-ply,SBD,M
Boys,56,11,Colton Bedford,Burleson,55.43,142.88,113.4,154.22,410.5,Single-ply,SBD,M
Boys,56,12,Scott Byrd,Longview,54.98,149.69,83.91,170.1,403.7,Single-ply,SBD,M
Boys,56,13,Evan Valenzuela,Midland Lee,56,158.76,77.11,163.29,399.16,Single-ply,SBD,M
Boys,56,14,Anthony Grimes,Katy Mayde Creek,55.52,149.69,83.91,158.76,392.36,Single-ply,SBD,M
Boys,56,DQ,Enrique Alvarez,Laredo Cigarroa,55.61,,,,,Single-ply,SBD,M
Boys,56,DQ,Omar Puente,Los Fresnos,53.98,,,,,Single-ply,SBD,M
Boys,56,DQ,Josh Fantauzzi,Buda Hays,54.61,154.22,,,,Single-ply,SBD,M
Boys,56,DQ,Kelly Tindall,Abilene Cooper,52.89,136.08,,,,Single-ply,SBD,M
Boys,56,DQ,Marco Oyervides,PSJA,55.97,,,,,Single-ply,SBD,M
Boys,56,DQ,Daniel Rodriguez #8,PSJA,55.61,,,,,Single-ply,SBD,M
Boys,60,1,Richard Hernandez,Lewisville The Colony,59.42,229.06,127.01,206.38,562.45,Single-ply,SBD,M
Boys,60,2,Clarington Lightfoot,Everman,58.69,226.8,111.13,208.65,546.58,Single-ply,SBD,M
Boys,60,3,Shon Parker,Dallas Seagoville,59.69,190.51,131.54,208.65,530.7,Single-ply,SBD,M
Boys,60,4,Zerrick Merchant,College Station A&M Cons,60,192.78,106.59,217.72,517.1,Single-ply,SBD,M
Boys,60,5,Marcos Ortiz,Laredo Alexander,59.69,192.78,120.2,190.51,503.49,Single-ply,SBD,M
Boys,60,6,Ryan Yanez,Gregory-Portland,59.42,181.44,133.81,179.17,494.42,Single-ply,SBD,M
Boys,60,7,Larkin Alexander,Waxahachie,58.88,174.63,108.86,176.9,460.4,Single-ply,SBD,M
Boys,60,8,David Bollinger,Vidor,57.15,176.9,108.86,170.1,455.86,Single-ply,SBD,M
Boys,60,9,Alfred Champion,Greenville,59.69,176.9,92.99,181.44,451.32,Single-ply,SBD,M
Boys,60,10,John Hernandez,San Angelo Lake View,59.96,145.15,92.99,176.9,415.04,Single-ply,SBD,M
Boys,60,11,Kenneth Gonzales,Abilene Cooper,60,140.61,106.59,158.76,405.97,Single-ply,SBD,M
Boys,60,12,Eric Garza,Magnolia West,59.6,176.9,113.4,,290.3,Single-ply,SB,M
Boys,60,DQ,Brandon Alford,Kyle Lehman,59.33,185.97,,,,Single-ply,SBD,M
Boys,67.5,1,Ruben Salinas,Roma,66.04,242.67,122.47,208.65,573.79,Single-ply,SBD,M
Boys,67.5,2,Nolan Salas,Crowley,66.59,233.6,122.47,213.19,569.26,Single-ply,SBD,M
Boys,67.5,3,Jared Wetuski,Montgomery,65.05,222.26,131.54,210.92,564.72,Single-ply,SBD,M
Boys,67.5,4,Vinson Sellars,Midlothian,63.87,217.72,106.59,219.99,544.31,Single-ply,SBD,M
Boys,67.5,5,Jazper Solis,Abilene,64.86,226.8,115.67,195.04,537.51,Single-ply,SBD,M
Boys,67.5,6,David Carter,Everman,66.41,208.65,113.4,215.46,537.51,Single-ply,SBD,M
Boys,67.5,7,Nick Dockens,Orange Little Cypress-Mauriceville,67.22,213.19,113.4,204.12,530.7,Single-ply,SBD,M
Boys,67.5,8,Bobby Hennigan,College Station A&M Cons,66.95,170.1,131.54,206.38,508.02,Single-ply,SBD,M
Boys,67.5,9,Tj Bruns,Abilene Cooper,66.77,192.78,111.13,161.03,464.93,Single-ply,SBD,M
Boys,67.5,10,JJ Gonzales,Gregory-Portland,65.95,242.67,138.35,,381.02,Single-ply,SB,M
Boys,67.5,DQ,Kevin Green,Katy Mayde Creek,66.32,,,,,Single-ply,SBD,M
Boys,67.5,DQ,Andric Okra,Marshall,67.31,,,,,Single-ply,SBD,M
Boys,67.5,DQ,Joseph Martinez,Round Rock,66.22,,,,,Single-ply,SBD,M
Boys,67.5,NS,Toni Ogunsola,Frisco,65.54,,,,,Single-ply,SBD,M
Boys,75,1,Dylan Byrd,Joshua,74.21,263.08,165.56,242.67,671.32,Single-ply,SBD,M
Boys,75,2,Chris Ford,Marshall,72.39,258.55,158.76,226.8,644.1,Single-ply,SBD,M
Boys,75,3,Jon Frasier,Kyle Lehman,72.12,258.55,149.69,215.46,623.69,Single-ply,SBD,M
Boys,75,4,Bobby Gonzalez,Weslaco East,73.57,244.94,124.74,240.4,610.08,Single-ply,SBD,M
Boys,75,5,Jeremy McNeal,La Porte,74.66,219.99,163.29,226.8,610.08,Single-ply,SBD,M
Boys,75,6,Cedrick Mccan,College Station A&M Cons,75,242.67,115.67,244.94,603.28,Single-ply,SBD,M
Boys,75,7,Alan Rivera,Plainview,73.57,247.21,127.01,219.99,594.21,Single-ply,SBD,M
Boys,75,8,Andy Mohl,Corpus Christi Tuloso-Midway,72.94,226.8,142.88,213.19,582.87,Single-ply,SBD,M
Boys,75,9,Brennan Sooter,Justin Northwest,73.03,208.65,120.2,213.19,542.04,Single-ply,SBD,M
Boys,75,DQ,Ronald Winston,Katy Mayde Creek,73.94,,,,,Single-ply,SBD,M
Boys,75,DQ,Gus Sanchez,Los Fresnos,72.67,281.23,136.08,,,Single-ply,SBD,M
Boys,75,DQ,Blaze Wooten,Midland,73.66,,,,,Single-ply,SBD,M
Boys,75,DQ,Lonnie Overturf,Comal Canyon,73.03,219.99,138.35,,,Single-ply,SBD,M
Boys,75,DQ,Stevin Leal,Corpus Christi Tuloso-Midway,73.3,249.48,,,,Single-ply,SBD,M
Boys,75,DQ,Adalberto Chavez,Hidalgo Early College,73.94,240.4,151.95,,,Single-ply,SBD,M
Boys,75,NS,Austin Martin #3,Greenville,73.3,,,,,Single-ply,SBD,M
Boys,75,DQ,Dashune Barlow,Cedar Hill,71.67,213.19,106.59,,,Single-ply,SBD,M
Boys,82.5,1,Robert Johnson,Nederland,78.65,276.69,145.15,274.42,696.26,Single-ply,SBD,M
Boys,82.5,2,Gabriel Longoria,Corpus Christi Calallen,81.1,285.76,149.69,249.48,684.92,Single-ply,SBD,M
Boys,82.5,3,Eliseo Garza,Los Fresnos,79.74,249.48,158.76,265.35,673.58,Single-ply,SBD,M
Boys,82.5,4,Ryan Torres,Gregory-Portland,80.38,263.08,156.49,249.48,669.05,Single-ply,SBD,M
Boys,82.5,5,James Perry,Manor,81.87,267.62,151.95,244.94,664.51,Single-ply,SBD,M
Boys,82.5,6,Joe Scott,Sulphur Springs,80.56,254.01,176.9,226.8,657.71,Single-ply,SBD,M
Boys,82.5,7,Justin Hicks,Channelview,81.19,249.48,158.76,249.48,657.71,Single-ply,SBD,M
Boys,82.5,8,Luis Munoz #1,Hidalgo Early College,81.19,272.16,149.69,224.53,646.37,Single-ply,SBD,M
Boys,82.5,9,Dj Levias,College Station A&M Cons,82.01,249.48,138.35,244.94,632.76,Single-ply,SBD,M
Boys,82.5,10,Stephen Julian,Mount Pleasant,81.01,235.87,161.03,226.8,623.69,Single-ply,SBD,M
Boys,82.5,11,Brandon Castillo,Corpus Christi Calallen,80.38,238.14,149.69,231.33,619.15,Single-ply,SBD,M
Boys,82.5,12,Zach Long,Little Elm,81.37,240.4,145.15,231.33,616.89,Single-ply,SBD,M
Boys,82.5,13,Joe Waithaka,College Station A&M Cons,81.83,235.87,154.22,217.72,607.81,Single-ply,SBD,M
Boys,82.5,14,Efrain Vasquez,Midland,81.83,240.4,138.35,215.46,594.21,Single-ply,SBD,M
Boys,82.5,DQ,Sergio Leyva,Odessa,81.83,,,,,Single-ply,SBD,M
Boys,82.5,DQ,Jeff Stevens,Justin Northwest,82.1,,,,,Single-ply,SBD,M
Boys,82.5,DQ,Chris Belmares,Weslaco East,80.83,240.4,136.08,,,Single-ply,SBD,M
Boys,90,1,Jeffrey Moreno,Comal Canyon,87.09,283.5,154.22,281.23,718.94,Single-ply,SBD,M
Boys,90,2,Brandon Griffith,Port Lavaca Calhoun,87.63,267.62,188.24,263.08,718.94,Single-ply,SBD,M
Boys,90,3,Daniel Wilkerson,Santa Fe,84.46,249.48,183.7,272.16,705.34,Single-ply,SBD,M
Boys,90,4,Steven Estevanes,Weslaco East,87.91,299.37,158.76,247.21,705.34,Single-ply,SBD,M
Boys,90,5,Chris Ceazer,College Station A&M Cons,88,281.23,151.95,272.16,705.34,Single-ply,SBD,M
Boys,90,6,Byron Wells,Dickinson,87.72,272.16,149.69,281.23,703.07,Single-ply,SBD,M
Boys,90,7,Ramiro Flores,Los Fresnos,87.82,267.62,163.29,249.48,680.39,Single-ply,SBD,M
Boys,90,8,Ivan Arevalo,Pharr Valley View,89.09,256.28,147.42,269.89,673.58,Single-ply,SBD,M
Boys,90,9,Travis Turner,Texarkana Texas,82.37,272.16,127.01,258.55,657.71,Single-ply,SBD,M
Boys,90,10,Dustin Hicks,Channelview,89.18,247.21,165.56,242.67,655.44,Single-ply,SBD,M
Boys,90,11,Chris Hall,Santa Fe,89.54,238.14,174.63,238.14,650.91,Single-ply,SBD,M
Boys,90,12,Jose Saucedo,Port Lavaca Calhoun,87.91,254.01,172.37,219.99,646.37,Single-ply,SBD,M
Boys,90,13,Aaron Bailey,Frisco Wakeland,88.81,254.01,145.15,244.94,644.1,Single-ply,SBD,M
Boys,90,14,Marquise Clater,Midland,88.18,247.21,145.15,249.48,641.83,Single-ply,SBD,M
Boys,90,15,Matt Cortez,Royse City,88.54,265.35,147.42,210.92,623.69,Single-ply,SBD,M
Boys,90,16,Stratford Washington,Cedar Hill,88,249.48,142.88,226.8,619.15,Single-ply,SBD,M
Boys,90,17,Boston Prachyl,Ennis,85.73,215.46,140.61,226.8,582.87,Single-ply,SBD,M
Boys,90,NS,Marcel Houston,Killeen Harker Heights,88.18,235.87,136.08,,,Single-ply,SBD,M
Boys,90,DQ,Eddie Garcia,Odessa,87.09,,,,,Single-ply,SBD,M
Boys,90,DQ,Eugene Manrique,Weslaco East,88.99,272.16,136.08,,,Single-ply,SBD,M
Boys,100,1,Xaviel Hinojosa,Weslaco East,94.89,308.44,197.31,258.55,764.3,Single-ply,SBD,M
Boys,100,2,Andres Castellanos,Corpus Christi Tuloso-Midway,93.98,299.37,156.49,283.5,739.36,Single-ply,SBD,M
Boys,100,3,Austin Price,Aledo,96.71,281.23,199.58,258.55,739.36,Single-ply,SBD,M
Boys,100,4,Larry Cardenas,Weslaco,97.52,285.76,154.22,263.08,703.07,Single-ply,SBD,M
Boys,100,5,Rodney Hall,Angleton,98.97,278.96,163.29,249.48,691.73,Single-ply,SBD,M
Boys,100,6,Luis Hernandez,Edcouch-Elsa,94.17,249.48,165.56,258.55,673.58,Single-ply,SBD,M
Boys,100,7,Zach Garcia,Alice,96.43,263.08,151.95,249.48,664.51,Single-ply,SBD,M
Boys,100,8,Matt Leise,Lewisville The Colony,98.25,276.69,142.88,242.67,662.24,Single-ply,SBD,M
Boys,100,9,Donald Preston,Tomball,100,272.16,129.27,249.48,650.91,Single-ply,SBD,M
Boys,100,10,Terchan Newman,Beaumont West Brook,99.61,254.01,156.49,238.14,648.64,Single-ply,SBD,M
Boys,100,11,Ricky Alvarez,Belton,100,254.01,149.69,244.94,648.64,Single-ply,SBD,M
Boys,100,12,Sir Wells,Lewisville The Colony,97.89,272.16,129.27,242.67,644.1,Single-ply,SBD,M
Boys,100,13,Zach Subealdea,Plainview,97.25,260.82,133.81,240.4,635.03,Single-ply,SBD,M
Boys,100,14,Aaron Allen #2,San Angelo Lake View,98.97,254.01,124.74,256.28,635.03,Single-ply,SBD,M
Boys,100,15,Bryan Randall,Waxahachie,97.52,235.87,151.95,226.8,614.62,Single-ply,SBD,M
Boys,100,16,Clay Carroll,Corsicana,98.61,222.26,145.15,226.8,594.21,Single-ply,SBD,M
Boys,100,DQ,Kentrell Joyner,Mansfield,97.7,249.48,149.69,,,Single-ply,SBD,M
Boys,100,DQ,Randall Jones,Elgin,91.35,,,,,Single-ply,SBD,M
Boys,100,DQ,Xavier Warren,Cedar Hill,98.79,276.69,154.22,,,Single-ply,SBD,M
Boys,110,1,Aaron Ripkowski,Dayton,108.32,272.16,217.72,294.84,784.71,Single-ply,SBD,M
Boys,110,2,Alex Fritz,Haltom City Haltom,107.86,303.91,190.51,249.48,743.89,Single-ply,SBD,M
Boys,110,3,Bridge Blount,Huntsville,106.23,281.23,167.83,285.76,734.82,Single-ply,SBD,M
Boys,110,4,Allen Harris,Beaumont Central,103.42,265.35,165.56,294.84,725.75,Single-ply,SBD,M
Boys,110,5,D'marco Smith,Corpus Christi Tuloso-Midway,107.5,308.44,167.83,244.94,721.21,Single-ply,SBD,M
Boys,110,6,Sergio Guevara,Donna,109.41,276.69,172.37,263.08,712.14,Single-ply,SBD,M
Boys,110,7,Damion Foster,Royse City,108.86,263.08,163.29,278.96,705.34,Single-ply,SBD,M
Boys,110,8,Roderick Wiltz,Houston Madison,108.5,283.5,161.03,258.55,703.07,Single-ply,SBD,M
Boys,110,9,Lorenzo Castaneda,Dickinson,109.41,272.16,154.22,272.16,698.53,Single-ply,SBD,M
Boys,110,10,Robert Martinez,San Angelo Central,102.42,272.16,145.15,263.08,680.39,Single-ply,SBD,M
Boys,110,11,Angelo Samaripa,Plainview,100.7,267.62,176.9,231.33,675.85,Single-ply,SBD,M
Boys,110,12,Paul Cox,Everman,104.78,263.08,158.76,254.01,675.85,Single-ply,SBD,M
Boys,110,13,Wyatt Smith,College Station A&M Cons,107.05,260.82,142.88,219.99,623.69,Single-ply,SBD,M
Boys,110,DQ,Caden Walker,College Station A&M Cons,109.04,258.55,185.97,,,Single-ply,SBD,M
Boys,110,DQ,Tyrone Melton,Garland Sachse,107.41,276.69,,,,Single-ply,SBD,M
Boys,110,DQ,Clayton Mcgilvray,Justin Northwest,106.68,,,,,Single-ply,SBD,M
Boys,110,DQ,Eddie Calico,Longview Pine Tree,107.23,,,,,Single-ply,SBD,M
Boys,110,DQ,Justin Rice,Pasadena Dobie,108.5,249.48,,,,Single-ply,SBD,M
Boys,110,DQ,Andre Evans,San Benito,106.87,269.89,151.95,,,Single-ply,SBD,M
Boys,110,DQ,Kohlton Tegeler,Victoria East,108.32,294.84,,,,Single-ply,SBD,M
Boys,110,DQ,Jose Barrios,Weslaco East,103.87,276.69,158.76,,,Single-ply,SBD,M
Boys,110,DQ,Christian Garcia,Weslaco East,106.59,278.96,145.15,,,Single-ply,SBD,M
Boys,110,DQ,Dayrell Freeman,Crowley,102.87,276.69,156.49,,,Single-ply,SBD,M
Boys,125,1,Carlos Cuellar,Weslaco East,118.66,322.05,204.12,272.16,798.32,Single-ply,SBD,M
Boys,125,2,Jj Bynum,College Station A&M Cons,121.38,324.32,174.63,272.16,771.11,Single-ply,SBD,M
Boys,125,3,Cameron Allen,Orange Little Cypress-Mauriceville,122.11,301.64,192.78,276.69,771.11,Single-ply,SBD,M
Boys,125,4,Will Cavanaugh,Comal Canyon,122.02,294.84,197.31,244.94,737.09,Single-ply,SBD,M
Boys,125,5,Nick Alvarez,Montgomery,121.74,281.23,201.85,249.48,732.55,Single-ply,SBD,M
Boys,125,6,Kenny Higgins,Kyle Lehman,121.56,281.23,172.37,265.35,718.94,Single-ply,SBD,M
Boys,125,7,Mason White,Keller Timber Creek,118.75,290.3,156.49,247.21,694,Single-ply,SBD,M
Boys,125,8,Ricco Marin,Midland Lee,111.86,251.74,142.88,249.48,644.1,Single-ply,SBD,M
Boys,125,9,Fred Gipson,Everman,122.47,249.48,183.7,208.65,641.83,Single-ply,SBD,M
Boys,125,DQ,Glenn Salisbury,Conroe Caney Creek,120.02,278.96,,,,Single-ply,SBD,M
Boys,125,DQ,Jesse Garza,Midland Lee,123.01,294.84,156.49,,,Single-ply,SBD,M
Boys,125,DQ,Jenson Jackson,Marshall,123.65,258.55,163.29,,,Single-ply,SBD,M
Boys,125,DQ,Andrew Bletsch,Santa Fe,119.02,,,,,Single-ply,SBD,M
Boys,125+,1,Xavier Johnson,Burleson,141.97,306.17,185.97,317.51,809.66,Single-ply,SBD,M
Boys,125+,2,Ethan Perkins,Nacogdoches,130,326.59,190.51,285.76,802.86,Single-ply,SBD,M
Boys,125+,3,Bobby Romero,Everman,148.14,317.51,181.44,256.28,755.23,Single-ply,SBD,M
Boys,125+,4,Anthony Madrigal,Freeport Brazosport,142.61,299.37,181.44,260.82,741.62,Single-ply,SBD,M
Boys,125+,5,Jonathon Saldana,Floresville,143.34,328.85,165.56,247.21,741.62,Single-ply,SBD,M
Boys,125+,6,Tim Meza,San Angelo Central,136.26,281.23,142.88,256.28,680.39,Single-ply,SBD,M
Boys,125+,7,Tim Jenkins,Dickinson,134.26,272.16,149.69,235.87,657.71,Single-ply,SBD,M
Boys,125+,8,Gennard Johnson,Waxahachie,143.15,249.48,136.08,272.16,657.71,Single-ply,SBD,M
Boys,125+,DQ,Nick Perez,Stephenville,127.19,288.03,,,,Single-ply,SBD,M
Boys,125+,DQ,Jorge Mendez,Pharr Valley View,136.98,,,,,Single-ply,SBD,M
Boys,125+,DQ,Mikal Fernandez,Houston Cypress Woods,140.07,,,,,Single-ply,SBD,M
Boys,125+,DQ,DJ Willis,Lewisville The Colony,137.62,,,,,Single-ply,SBD,M
Boys,125+,DQ,Paul Gore,Odessa Permian,131,,,,,Single-ply,SBD,M
